Base Amplitude                  = 50 dB
Voltage at 50dB                 = 64.16 mV
Sampling frequency              = 160000 Hz
Ripple peak                     = 5000 %
Lower frequency component       = 2000 Hz
Upper frequency component       = 64000 Hz
Number of components            = 500
Components harmonically spaced  = 0
Harmonic spacing                = 0 Hz
Spectral Power Decay            = 0 dB/octave
Components random phase         = 1
Time duration                   = 3.00
Ripple amplitudes               = (1.00  1.00  1.00  1.00  1.00  1.00  )
Ripple frequencies              = (0.00  0.00  0.00  0.00  0.00  0.00  ) cyc/oct
Ripple phase shifts             = (147.00  -154.00  54.00  57.00  186.00  72.00  ) deg
Angular frequencies             = (4.00  8.00  12.00  16.00  20.00  24.00  ) Hz
